-------------------------------------------------------------------------------
Test set: unimoni.AppTest
-------------------------------------------------------------------------------
Tests run: 1, Failures: 0, Errors: 0, Skipped: 0, Time elapsed: 4.395 s - in unimoni.AppTest
