/root/amigo-java/amigo-java-backend/src/main/java/unimoni/App.java
/root/amigo-java/amigo-java-backend/src/main/java/unimoni/GreetingHandler.java
/root/amigo-java/amigo-java-backend/src/main/java/unimoni/WelcomeHandler.java
/root/amigo-java/amigo-java-backend/src/main/java/unimoni/Greeting.java
